…
# now for k=3
kdf3 <- generateRandomK(k = 3, nsamples = 131)
kdf3 <- left_join(kdf3, locdata)

# for k=4
kdf4 <- generateRandomK(k = 4, nsamples = 131)
kdf4 <- left_join(kdf4, locdata)
{% endhighlight %} 

A quick glimpse of the resulting tibbles shows us how the plotting variables (x, y, fill, and facet) are ready for ggplot.  

{% highlight text %}
> kdf2
# A tibble: 262 x 4
   sampleID popGroup   prob loc  
      <int>    <int>  <dbl> <chr>
 1        1        1 0.0517 WEST 
 2        1        2 0.948  WEST 
 3        2        1 0.881  NORTH
 4        2        2 0.119  NORTH
 5        3        1 0.0853 WEST 
 6        3        2 0.915  WEST 
 7        4        1 0.0849 SOUTH
 8        4        2 0.915  SOUTH
 9        5        1 0.615  WEST 
10        5        2 0.385  WEST 
# … with 252 more rows
…
