…
Resulting in a tidy, long format dataset with seasons, conference, and teams:
{% highlight text %}
> TeamsSeasons
# A tibble: 448 x 3
      Yr conf    Teams                
   <dbl> <chr>   <chr>                
 1  2019 Eastern Milwaukee Bucks      
 2  2019 Eastern Detroit Pistons      
 3  2019 Eastern Toronto Raptors      
 4  2019 Eastern Orlando Magic        
 5  2019 Eastern Philadelphia 76ers   
 6  2019 Eastern Brooklyn Nets        
 7  2019 Eastern Boston Celtics       
 8  2019 Eastern Indiana Pacers       
 9  2019 Western Golden State Warriors
10  2019 Western Los Angeles Clippers 
# … with 438 more rows
…
Let's see.
{% highlight text %}
> teamsQualLong
# A tibble: 868 x 4
   conf    Teams           Season value
   <chr>   <chr>           <chr>  <chr>
 1 Eastern Milwaukee Bucks 2019   yes  
 2 Eastern Milwaukee Bucks 2018   yes  
 3 Eastern Milwaukee Bucks 2017   yes  
 4 Eastern Milwaukee Bucks 2016   NA   
 5 Eastern Milwaukee Bucks 2015   yes  
 6 Eastern Milwaukee Bucks 2014   NA   
 7 Eastern Milwaukee Bucks 2013   yes  
 8 Eastern Milwaukee Bucks 2012   NA   
 9 Eastern Milwaukee Bucks 2011   NA   
10 Eastern Milwaukee Bucks 2010   yes  
# … with 858 more rows
…
The resulting long-format tibble is also ready for plotting.
{% highlight text %}
> allSeasonsEWturnover
# A tibble: 54 x 3
    year teams conf              
   <dbl> <dbl> <chr>             
 1     1     6 Eastern Conference
 2     2     6 Eastern Conference
 3     3     6 Eastern Conference
 4     4     6 Eastern Conference
 5     5     6 Eastern Conference
 6     6     5 Eastern Conference
 7     7     4 Eastern Conference
 8     8     6 Eastern Conference
 9     9     7 Eastern Conference
10    10     5 Eastern Conference
# … with 44 more rows
…
