…
I dropped aquatic units and only kept Post-Imperial units because that’s how I usually play online. 

A glimpse of the analysis-ready data:
{% highlight text %}
# A tibble: 121 x 13
   unit_type unit  build_time reload_time attack_delay speed line_of_sight hit_points
   <chr>     <chr>      <dbl>       <dbl>        <dbl> <dbl>         <dbl>      <dbl>
 1 Archery … Cros…         27        2           0.35   0.96             7         35
 2 Archery … Arba…         27        2           0.35   0.96             7         40
 3 Archery … Hand…         34        3.45        0.35   0.96             9         35
 4 Archery … Geni…         25        3           0.5    1.35             5         50
 5 Archery … Elit…         23        3           0.5    1.35             6         55
 6 Archery … Elit…         22        3           0.5    0.96             7         35
 7 Archery … Impe…         22        3           0.5    0.96             7         35
 8 Archery … Slin…         25        2           0.775  0.96             7         40
 9 Archery … Cava…         34        2           1      1.4              5         50
10 Archery … Heav…         27        2           1      1.4              6         60
# … with 111 more rows, and 5 more variables: damage_attack <dbl>, melee_armor <dbl>,
#   pierce_armor <dbl>, range_max <dbl>, cost_norm <dbl>
…
